…
Below is a table summarizing the number of items ordered from aisle. In
total, there are 134 aisles, with fresh vegetables and fresh fruits
holding the most items ordered by far.

``` r
instacart |> 
  count(aisle) |> 
  arrange(desc(n))
```

    ## # A tibble: 134 × 2
    ##    aisle                              n
    ##    <chr>                          <int>
    ##  1 fresh vegetables              150609
    ##  2 fresh fruits                  150473
    ##  3 packaged vegetables fruits     78493
    ##  4 yogurt                         55240
    ##  5 packaged cheese                41699
    ##  6 water seltzer sparkling water  36617
    ##  7 milk                           32644
    ##  8 chips pretzels                 31269
    ##  9 soy lactosefree                26240
    ## 10 bread                          23635
    ## # ℹ 124 more rows
…
clean_brfss = brfss_smart2010 |>
  # format the data to use appropriate variable names
  janitor::clean_names()|>
  
  # focus on the “Overall Health” topic
  filter(topic == "Overall Health")|>
  
  # include only responses from “Excellent” to “Poor”
 filter(response == "Excellent" | response == "Very good" | response == "Good"|response == "Fair"|response == "Poor") |>
  mutate(response=factor(response, level=c("Poor","Fair","Good","Very good","Excellent")))
clean_brfss
```

    ## # A tibble: 10,625 × 23
    ##     year locationabbr locationdesc     class topic question response sample_size
    ##    <int> <chr>        <chr>            <chr> <chr> <chr>    <fct>          <int>
    ##  1  2010 AL           AL - Jefferson … Heal… Over… How is … Excelle…          94
    ##  2  2010 AL           AL - Jefferson … Heal… Over… How is … Very go…         148
    ##  3  2010 AL           AL - Jefferson … Heal… Over… How is … Good             208
    ##  4  2010 AL           AL - Jefferson … Heal… Over… How is … Fair             107
    ##  5  2010 AL           AL - Jefferson … Heal… Over… How is … Poor              45
    ##  6  2010 AL           AL - Mobile Cou… Heal… Over… How is … Excelle…          91
    ##  7  2010 AL           AL - Mobile Cou… Heal… Over… How is … Very go…         177
    ##  8  2010 AL           AL - Mobile Cou… Heal… Over… How is … Good             224
    ##  9  2010 AL           AL - Mobile Cou… Heal… Over… How is … Fair             120
    ## 10  2010 AL           AL - Mobile Cou… Heal… Over… How is … Poor              66
    ## # ℹ 10,615 more rows
    ## # ℹ 15 more variables: data_value <dbl>, confidence_limit_low <dbl>,
    ## #   confidence_limit_high <dbl>, display_order <int>, data_value_unit <chr>,
    ## #   data_value_type <chr>, data_value_footnote_symbol <chr>,
    ## #   data_value_footnote <chr>, data_source <chr>, class_id <chr>,
    ## #   topic_id <chr>, location_id <chr>, question_id <chr>, respid <chr>,
    ## #   geo_location <chr>
…
    ## Rows: 250 Columns: 5
    ## ── Column specification ────────────────────────────────────────────────────────
    ## Delimiter: ","
    ## dbl (5): SEQN, sex, age, BMI, education
    ## 
    ## ℹ Use `spec()` to retrieve the full column specification for this data.
    ## ℹ Specify the column types or set `show_col_types = FALSE` to quiet this message.

``` r
nhanes_covar
```

    ## # A tibble: 228 × 5
    ##     seqn sex      age   bmi education             
    ##    <dbl> <fct>  <dbl> <dbl> <fct>                 
    ##  1 62161 male      22  23.3 High school equivalent
    ##  2 62164 female    44  23.2 More than high school 
    ##  3 62169 male      21  20.1 High school equivalent
    ##  4 62174 male      80  33.9 More than high school 
    ##  5 62177 male      51  20.1 High school equivalent
    ##  6 62178 male      80  28.5 High school equivalent
    ##  7 62180 male      35  27.9 More than high school 
    ##  8 62184 male      26  22.1 High school equivalent
    ##  9 62189 female    30  22.4 More than high school 
    ## 10 62199 male      57  28   More than high school 
    ## # ℹ 218 more rows
…
    ## Rows: 250 Columns: 1441
    ## ── Column specification ────────────────────────────────────────────────────────
    ## Delimiter: ","
    ## dbl (1441): SEQN, min1, min2, min3, min4, min5, min6, min7, min8, min9, min1...
    ## 
    ## ℹ Use `spec()` to retrieve the full column specification for this data.
    ## ℹ Specify the column types or set `show_col_types = FALSE` to quiet this message.

``` r
nhanes_accel
```

    ## # A tibble: 360,000 × 3
    ##     seqn minute activity
    ##    <dbl>  <dbl>    <dbl>
    ##  1 62161      1    1.11 
    ##  2 62161      2    3.12 
    ##  3 62161      3    1.47 
    ##  4 62161      4    0.938
    ##  5 62161      5    1.60 
    ##  6 62161      6    0.145
    ##  7 62161      7    2.10 
    ##  8 62161      8    0.509
    ##  9 62161      9    1.63 
    ## 10 62161     10    1.20 
    ## # ℹ 359,990 more rows

merge data

``` r
nhances_all =
  left_join(nhanes_covar, nhanes_accel, by = "seqn")
nhances_all
```

    ## # A tibble: 328,320 × 7
    ##     seqn sex     age   bmi education              minute activity
    ##    <dbl> <fct> <dbl> <dbl> <fct>                   <dbl>    <dbl>
    ##  1 62161 male     22  23.3 High school equivalent      1    1.11 
    ##  2 62161 male     22  23.3 High school equivalent      2    3.12 
    ##  3 62161 male     22  23.3 High school equivalent      3    1.47 
    ##  4 62161 male     22  23.3 High school equivalent      4    0.938
    ##  5 62161 male     22  23.3 High school equivalent      5    1.60 
    ##  6 62161 male     22  23.3 High school equivalent      6    0.145
    ##  7 62161 male     22  23.3 High school equivalent      7    2.10 
    ##  8 62161 male     22  23.3 High school equivalent      8    0.509
    ##  9 62161 male     22  23.3 High school equivalent      9    1.63 
    ## 10 62161 male     22  23.3 High school equivalent     10    1.20 
    ## # ℹ 328,310 more rows
…
